C:\Users\id20445\Documents\NetBeansProjects\com.mycompany_Eva02_FcaSoto_1.0\src\main\java\root\model\dao\exceptions\NonexistentEntityException.java
C:\Users\id20445\Documents\NetBeansProjects\com.mycompany_Eva02_FcaSoto_1.0\src\main\java\root\model\dao\exceptions\IllegalOrphanException.java
C:\Users\id20445\Documents\NetBeansProjects\com.mycompany_Eva02_FcaSoto_1.0\src\main\java\root\model\dao\exceptions\PreexistingEntityException.java
C:\Users\id20445\Documents\NetBeansProjects\com.mycompany_Eva02_FcaSoto_1.0\src\main\java\root\controller\Controller.java
C:\Users\id20445\Documents\NetBeansProjects\com.mycompany_Eva02_FcaSoto_1.0\src\main\java\root\model\entities\Testin.java
C:\Users\id20445\Documents\NetBeansProjects\com.mycompany_Eva02_FcaSoto_1.0\src\main\java\root\model\dao\TestinDAO.java
